{
  "page": 1,
  "pages": 1132258,
  "total": 7925800,
  "total_email": 2930,
  "total_wpcom": 7925800,
  "subscribers": [
    {
      "avatar": "https://0.gravatar.com/avatar/624b89cb0c8b9136f9629dd7bcab0517?s=64&amp;d=https%3A%2F%2F0.gravatar.com%2Favatar%2Fad516503a11cd5ca435acc9bb6523536%3Fs%3D64&amp;r=G",
      "label": "ritu929",
      "url": "http://ritu9blog.wordpress.com",
      "follow_data": {
        "params": {
          "stat-source": "stats_comments",
          "follow-text": "Follow",
          "following-text": "Following",
          "following-hover-text": "Unfollow",
          "blog_domain": "ritu9blog.wordpress.com",
          "blog_url": "http://ritu9blog.wordpress.com",
          "blog_id": 80982396,
          "site_id": 80982396,
          "blog_title": "ritu929&#039;s Blog",
          "is_following": false
        },
        "type": "follow"
      },
      "date_subscribed": "2014-12-16T14:53:21+00:00"
    },
    {
      "avatar": "https://1.gravatar.com/avatar/d9ece92eea64b1090108895fea6133c4?s=64&amp;d=https%3A%2F%2F1.gravatar.com%2Favatar%2Fad516503a11cd5ca435acc9bb6523536%3Fs%3D64&amp;r=G",
      "label": "sotogiovannysotogiovanny",
      "url": "http://sotogiovanny.wordpress.com",
      "follow_data": {
        "params": {
          "stat-source": "stats_comments",
          "follow-text": "Follow",
          "following-text": "Following",
          "following-hover-text": "Unfollow",
          "blog_domain": "sotogiovanny.wordpress.com",
          "blog_url": "http://sotogiovanny.wordpress.com",
          "blog_id": 80982334,
          "site_id": 80982334,
          "blog_title": "sotogiovanny",
          "is_following": false
        },
        "type": "follow"
      },
      "date_subscribed": "2014-12-16T14:53:02+00:00"
    },
    {
      "avatar": "https://1.gravatar.com/avatar/7949ad6afe7d0a666427170569ef14c9?s=64&amp;d=https%3A%2F%2F1.gravatar.com%2Favatar%2Fad516503a11cd5ca435acc9bb6523536%3Fs%3D64&amp;r=G",
      "label": "zoe12296",
      "url": "http://zoe12296.wordpress.com",
      "follow_data": {
        "params": {
          "stat-source": "stats_comments",
          "follow-text": "Follow",
          "following-text": "Following",
          "following-hover-text": "Unfollow",
          "blog_domain": "zoe12296.wordpress.com",
          "blog_url": "http://zoe12296.wordpress.com",
          "blog_id": 80982352,
          "site_id": 80982352,
          "blog_title": "zoe12296",
          "is_following": false
        },
        "type": "follow"
      },
      "date_subscribed": "2014-12-16T14:52:57+00:00"
    },
    {
      "avatar": "https://2.gravatar.com/avatar/2c572d6e19015b6db0d55bdf335caf53?s=64&amp;d=https%3A%2F%2F2.gravatar.com%2Favatar%2Fad516503a11cd5ca435acc9bb6523536%3Fs%3D64&amp;r=G",
      "label": "oisin1min",
      "url": "http://oisin18curran.wordpress.com",
      "follow_data": {
        "params": {
          "stat-source": "stats_comments",
          "follow-text": "Follow",
          "following-text": "Following",
          "following-hover-text": "Unfollow",
          "blog_domain": "oisin18curran.wordpress.com",
          "blog_url": "http://oisin18curran.wordpress.com",
          "blog_id": 80982349,
          "site_id": 80982349,
          "blog_title": "oisin18curran",
          "is_following": false
        },
        "type": "follow"
      },
      "date_subscribed": "2014-12-16T14:52:52+00:00"
    },
    {
      "avatar": "https://0.gravatar.com/avatar/f7a40fd8ac387756167d6d36c58213da?s=64&amp;d=https%3A%2F%2F0.gravatar.com%2Favatar%2Fad516503a11cd5ca435acc9bb6523536%3Fs%3D64&amp;r=G",
      "label": "linistle",
      "url": "http://solitarystory.wordpress.com",
      "follow_data": {
        "params": {
          "stat-source": "stats_comments",
          "follow-text": "Follow",
          "following-text": "Following",
          "following-hover-text": "Unfollow",
          "blog_domain": "solitarystory.wordpress.com",
          "blog_url": "http://solitarystory.wordpress.com",
          "blog_id": 80982340,
          "site_id": 80982340,
          "blog_title": "solitarystory",
          "is_following": false
        },
        "type": "follow"
      },
      "date_subscribed": "2014-12-16T14:52:49+00:00"
    },
    {
      "avatar": "https://1.gravatar.com/avatar/1689bf5175c2aa9f2c13a0d36acc944d?s=64&amp;d=https%3A%2F%2F1.gravatar.com%2Favatar%2Fad516503a11cd5ca435acc9bb6523536%3Fs%3D64&amp;r=G",
      "label": "ambxblog",
      "url": "http://ambxblog.wordpress.com",
      "follow_data": {
        "params": {
          "stat-source": "stats_comments",
          "follow-text": "Follow",
          "following-text": "Following",
          "following-hover-text": "Unfollow",
          "blog_domain": "ambxblog.wordpress.com",
          "blog_url": "http://ambxblog.wordpress.com",
          "blog_id": 80982342,
          "site_id": 80982342,
          "blog_title": "ambxblog",
          "is_following": false
        },
        "type": "follow"
      },
      "date_subscribed": "2014-12-16T14:52:48+00:00"
    },
    {
      "avatar": "https://2.gravatar.com/avatar/b98fab16a514e036f27a6371d5ee3324?s=64&amp;d=https%3A%2F%2F2.gravatar.com%2Favatar%2Fad516503a11cd5ca435acc9bb6523536%3Fs%3D64&amp;r=G",
      "label": "graphene101010",
      "url": "http://graphene101010.wordpress.com",
      "follow_data": {
        "params": {
          "stat-source": "stats_comments",
          "follow-text": "Follow",
          "following-text": "Following",
          "following-hover-text": "Unfollow",
          "blog_domain": "graphene101010.wordpress.com",
          "blog_url": "http://graphene101010.wordpress.com",
          "blog_id": 80982314,
          "site_id": 80982314,
          "blog_title": "graphene101010",
          "is_following": false
        },
        "type": "follow"
      },
      "date_subscribed": "2014-12-16T14:52:47+00:00"
    }
  ]
}