{
    "@context": "https:\\/\\/www.w3.org\\/ns\\/activitystreams",
    "summary": "Activity log",
    "type": "OrderedCollection",
    "totalItems": 8,
    "page": 1,
    "totalPages": 1,
    "itemsPerPage": 20,
    "id": "https:\\/\\/public-api.wordpress.com\\/wpcom\\/v2\\/sites\\/activity002.mystagingwebsite.com\\/activity?number=20",
    "first": "https:\\/\\/public-api.wordpress.com\\/wpcom\\/v2\\/sites\\/activity002.mystagingwebsite.com\\/activity?number=20&page=1",
    "last": "https:\\/\\/public-api.wordpress.com\\/wpcom\\/v2\\/sites\\/activity002.mystagingwebsite.com\\/activity?number=20&page=31",
    "current": {
        "type": "OrderedCollectionPage",
        "id": "https:\\/\\/public-api.wordpress.com\\/wpcom\\/v2\\/sites\\/activity002.mystagingwebsite.com\\/activity?number=20&page=1",
        "next": "https:\\/\\/public-api.wordpress.com\\/wpcom\\/v2\\/sites\\/activity002.mystagingwebsite.com\\/activity?number=20&page=2",
        "totalItems": 20,
        "orderedItems": [
                         {
                         "summary": "Login Succeeded",
                         "content": {"text": "activity002 logged in successfully"},
                         "name": "user__login",
                         "actor": {
                         "type": "Person",
                         "name": "activity002",
                         "external_user_id": 1,
                         "wpcom_user_id": 84973892,
                         "icon": {
                         "type": "Image",
                         "url": "https:\\/\\/secure.gravatar.com\\/avatar\\/a78c747ecc4e8d1936e8d33080ae1803?s=96&d=mm&r=g",
                         "width": 96,
                         "height": 96
                         },
                         "role": "administrator"
                         },
                         "type": "Join",
                         "published": "2017-10-24T15:16:38.123+00:00",
                         "generator": {
                         "jetpack_version": 5.4,
                         "blog_id": 135188029
                         },
                         "is_rewindable": false,
                         "gridicon": "lock",
                         "status": null,
                         "activity_id": "AV9O9QdZjEqjFGbxaO_m",
                         "object": {
                         "type": "Person",
                         "name": "activity002",
                         "external_user_id": 1,
                         "wpcom_user_id": 84973892
                         }
                         },
                         {
                         "summary": "Login Succeeded",
                         "content": {"text": "activity002 logged in successfully"},
                         "name": "user__login",
                         "actor": {
                         "type": "Person",
                         "name": "activity002",
                         "external_user_id": 1,
                         "wpcom_user_id": 60261367,
                         "icon": {
                         "type": "Image",
                         "url": "https:\\/\\/secure.gravatar.com\\/avatar\\/a78c747ecc4e8d1936e8d33080ae1803?s=96&d=mm&r=g",
                         "width": 96,
                         "height": 96
                         },
                         "role": "administrator"
                         },
                         "type": "Join",
                         "published": "2017-10-11T17:10:02.123+00:00",
                         "generator": {
                         "jetpack_version": 5.4,
                         "blog_id": 135188029
                         },
                         "is_rewindable": true,
                         "rewind_id": "35555666",
                         "gridicon": "lock",
                         "status": null,
                         "activity_id": "AV8MajCujEqjFGbxwDy9",
                         "object": {
                         "type": "Person",
                         "name": "activity002",
                         "external_user_id": 1,
                         "wpcom_user_id": 60261367
                         }
                         },
                         {
                         "summary": "Post Published",
                         "content": {"text": "activity002 published Post scheduled from wp-admin"},
                         "name": "post__published",
                         "actor": {
                         "type": "Person",
                         "name": "activity002",
                         "external_user_id": 1,
                         "wpcom_user_id": 0,
                         "icon": {
                         "type": "Image",
                         "url": "https:\\/\\/secure.gravatar.com\\/avatar\\/a78c747ecc4e8d1936e8d33080ae1803?s=96&d=mm&r=g",
                         "width": 96,
                         "height": 96
                         },
                         "role": ""
                         },
                         "type": "Update",
                         "published": "2017-10-11T14:21:35.123+00:00",
                         "generator": {
                         "jetpack_version": 5.4,
                         "blog_id": 135188029
                         },
                         "is_rewindable": false,
                         "gridicon": "posts",
                         "status": "success",
                         "activity_id": "AV8Lz_qXjEqjFGbxuPdj",
                         "object": {
                         "type": "Article",
                         "name": "scheduled from wp-admin",
                         "object_id": 721,
                         "object_type": "post",
                         "object_status": "publish"
                         }
                         },
                         {
                         "summary": "Post Updated",
                         "content": {"text": "activity002 updated Post scheduled from wp-admin"},
                         "name": "post__updated",
                         "actor": {
                         "type": "Person",
                         "name": "activity002",
                         "external_user_id": 1,
                         "wpcom_user_id": 60261367,
                         "icon": {
                         "type": "Image",
                         "url": "https:\\/\\/secure.gravatar.com\\/avatar\\/a78c747ecc4e8d1936e8d33080ae1803?s=96&d=mm&r=g",
                         "width": 96,
                         "height": 96
                         },
                         "role": "administrator"
                         },
                         "type": "Update",
                         "published": "2017-10-11T14:19:24.123+00:00",
                         "generator": {
                         "jetpack_version": 5.4,
                         "blog_id": 135188029
                         },
                         "is_rewindable": false,
                         "gridicon": "posts",
                         "status": null,
                         "activity_id": "AV8Lze9njEqjFGbxuN7o",
                         "object": {
                         "type": "Article",
                         "name": "scheduled from wp-admin",
                         "object_id": 721,
                         "object_type": "post",
                         "object_status": "future"
                         }
                         },
                         {
                         "summary": "Post Published",
                         "content": {"text": "activity002 published Post scheduled post"},
                         "name": "post__published",
                         "actor": {
                         "type": "Person",
                         "name": "activity002",
                         "external_user_id": 1,
                         "wpcom_user_id": 0,
                         "icon": {
                         "type": "Image",
                         "url": "https:\\/\\/secure.gravatar.com\\/avatar\\/a78c747ecc4e8d1936e8d33080ae1803?s=96&d=mm&r=g",
                         "width": 96,
                         "height": 96
                         },
                         "role": ""
                         },
                         "type": "Update",
                         "published": "2017-10-11T14:15:10.123+00:00",
                         "generator": {
                         "jetpack_version": 5.4,
                         "blog_id": 135188029
                         },
                         "is_rewindable": false,
                         "gridicon": "posts",
                         "status": "success",
                         "activity_id": "AV8Lyh49jEqjFGbxuLF9",
                         "object": {
                         "type": "Article",
                         "name": "scheduled post",
                         "object_id": 719,
                         "object_type": "post",
                         "object_status": "publish"
                         }
                         },
                         {
                         "summary": "Post Updated",
                         "content": {"text": "activity002 updated Post scheduled post"},
                         "name": "post__updated",
                         "actor": {
                         "type": "Person",
                         "name": "activity002",
                         "external_user_id": 1,
                         "wpcom_user_id": 60261367,
                         "icon": {
                         "type": "Image",
                         "url": "https:\\/\\/secure.gravatar.com\\/avatar\\/a78c747ecc4e8d1936e8d33080ae1803?s=96&d=mm&r=g",
                         "width": 96,
                         "height": 96
                         },
                         "role": "administrator"
                         },
                         "type": "Update",
                         "published": "2017-10-11T14:12:18.123+00:00",
                         "generator": {
                         "jetpack_version": 5.4,
                         "blog_id": 135188029
                         },
                         "is_rewindable": false,
                         "gridicon": "posts",
                         "status": null,
                         "activity_id": "AV8Lx3B3jEqjFGbxuI45",
                         "object": {
                         "type": "Article",
                         "name": "scheduled post",
                         "object_id": 719,
                         "object_type": "post",
                         "object_status": "future"
                         }
                         },
                         {
                         "summary": "Post Updated",
                         "content": {"text": "activity002 updated Post scheduled post"},
                         "name": "post__updated",
                         "actor": {
                         "type": "Person",
                         "name": "activity002",
                         "external_user_id": 1,
                         "wpcom_user_id": 60261367,
                         "icon": {
                         "type": "Image",
                         "url": "https:\\/\\/secure.gravatar.com\\/avatar\\/a78c747ecc4e8d1936e8d33080ae1803?s=96&d=mm&r=g",
                         "width": 96,
                         "height": 96
                         },
                         "role": "administrator"
                         },
                         "type": "Update",
                         "published": "2017-10-11T14:11:56.123+00:00",
                         "generator": {
                         "jetpack_version": 5.4,
                         "blog_id": 135188029
                         },
                         "is_rewindable": false,
                         "gridicon": "posts",
                         "status": null,
                         "activity_id": "AV8LxxvujEqjFGbxuIpT",
                         "object": {
                         "type": "Article",
                         "name": "scheduled post",
                         "object_id": 719,
                         "object_type": "post",
                         "object_status": "draft"
                         }
                         },
                         {
                         "summary": "User Added",
                         "content": {"text": "activity002 added user elibud to site."},
                         "name": "user__registered",
                         "actor": {
                         "type": "Person",
                         "name": "activity002",
                         "external_user_id": 1,
                         "wpcom_user_id": 60261367,
                         "icon": {
                         "type": "Image",
                         "url": "https:\\/\\/secure.gravatar.com\\/avatar\\/a78c747ecc4e8d1936e8d33080ae1803?s=96&d=mm&r=g",
                         "width": 96,
                         "height": 96
                         },
                         "role": "administrator"
                         },
                         "type": "Announce",
                         "published": "2017-10-10T15:51:37.123+00:00",
                         "generator": {
                         "jetpack_version": 5.4,
                         "blog_id": 135188029
                         },
                         "is_rewindable": false,
                         "gridicon": "user",
                         "status": "success",
                         "activity_id": "AV8G_AvDjEqjFGbxhaGf",
                         "object": {
                         "type": "Person",
                         "name": "elibud",
                         "external_user_id": 11,
                         "wpcom_user_id": 0
                         }
                         }
                         ]
    }
}
